{
	"name": ["Example", "example"],
	"initial": "e",
	"model": "Krake",
	"preset": "./presets/20B-v2/Blue Adder.preset",
	"prefix": "vanilla",
	"context_txt": "./AI/example/context.json",
	"voice": "example",
	"generate_until_sentence": true,
	"use_string": false,
	"ban_brackets": true,
	"ban_ambiguous_genji_tokens": true,
	"bias_dinkus_asterism": true,
	"num_logprobs": 0,
	"name_bias": 0.0010,
	"emoji_bias": 0,
	"context_window": 200,
	"context_mode": 2,
	"context_pos": 10,
	"wait_time": 0.55
}
